…
We first have to aggregate the occurrence cube in order to get a list of
observed species for each grid cell. The optional argument *timegroup*
can be used to indicate a time interval for which the PD metrics should
be calculated, eg. `timegroup=5` calculates PD for all occurrences
observed within a timespan of 5 years and produces a seperate map and
indicator for each period. If no timegroup argument is specified, all
occurrences in the dataset will be aggregated over time.

``` r
aggr_cube <- aggregate_cube(mcube, timegroup=5)
print(aggr_cube, n=50)
```

    ## # A tibble: 305 × 6
    ##    period    eeaCellCode   speciesKeys ott_ids   unique_names orig_tiplabels
    ##    <chr>     <chr>         <list>      <list>    <list>       <list>        
    ##  1 2001-2005 1kmE3847N3105 <int [1]>   <int [1]> <chr [1]>    <chr [1]>     
    ##  2 2001-2005 1kmE3848N3105 <int [1]>   <int [1]> <chr [1]>    <chr [1]>     
    ##  3 2001-2005 1kmE4044N3010 <int [1]>   <int [1]> <chr [1]>    <chr [1]>     
    ##  4 2001-2005 1kmE4045N3010 <int [1]>   <int [1]> <chr [1]>    <chr [1]>     
    ##  5 2006-2010 1kmE3847N3104 <int [1]>   <int [1]> <chr [1]>    <chr [1]>     
    ##  6 2006-2010 1kmE3848N3097 <int [1]>   <int [1]> <chr [1]>    <chr [1]>     
    ##  7 2006-2010 1kmE3887N3141 <int [1]>   <int [1]> <chr [1]>    <chr [1]>     
    ##  8 2006-2010 1kmE3897N3106 <int [1]>   <int [1]> <chr [1]>    <chr [1]>     
    ##  9 2006-2010 1kmE3901N3096 <int [1]>   <int [1]> <chr [1]>    <chr [1]>     
    ## 10 2006-2010 1kmE3920N3129 <int [1]>   <int [1]> <chr [1]>    <chr [1]>     
    ## 11 2006-2010 1kmE3930N3118 <int [1]>   <int [1]> <chr [1]>    <chr [1]>     
    ## 12 2006-2010 1kmE3931N3119 <int [1]>   <int [1]> <chr [1]>    <chr [1]>     
    ## 13 2006-2010 1kmE3940N3134 <int [1]>   <int [1]> <chr [1]>    <chr [1]>     
    ## 14 2006-2010 1kmE3948N3143 <int [1]>   <int [1]> <chr [1]>    <chr [1]>     
    ## 15 2006-2010 1kmE3961N3126 <int [1]>   <int [1]> <chr [1]>    <chr [1]>     
    ## 16 2011-2015 1kmE3835N3126 <int [1]>   <int [1]> <chr [1]>    <chr [1]>     
    ## 17 2011-2015 1kmE3868N3141 <int [1]>   <int [1]> <chr [1]>    <chr [1]>     
    ## 18 2011-2015 1kmE3873N3091 <int [1]>   <int [1]> <chr [1]>    <chr [1]>     
    ## 19 2011-2015 1kmE3876N3129 <int [1]>   <int [1]> <chr [1]>    <chr [1]>     
    ## 20 2011-2015 1kmE3878N3121 <int [1]>   <int [1]> <chr [1]>    <chr [1]>     
    ## 21 2011-2015 1kmE3884N3116 <int [1]>   <int [1]> <chr [1]>    <chr [1]>     
    ## 22 2011-2015 1kmE3893N3081 <int [1]>   <int [1]> <chr [1]>    <chr [1]>     
    ## 23 2011-2015 1kmE3902N3126 <int [1]>   <int [1]> <chr [1]>    <chr [1]>     
    ## 24 2011-2015 1kmE3905N3101 <int [1]>   <int [1]> <chr [1]>    <chr [1]>     
    ## 25 2011-2015 1kmE3919N3123 <int [1]>   <int [1]> <chr [1]>    <chr [1]>     
    ## 26 2011-2015 1kmE3920N3151 <int [1]>   <int [1]> <chr [1]>    <chr [1]>     
    ## 27 2011-2015 1kmE3923N3141 <int [1]>   <int [1]> <chr [1]>    <chr [1]>     
    ## 28 2011-2015 1kmE3925N3059 <int [1]>   <int [1]> <chr [1]>    <chr [1]>     
    ## 29 2011-2015 1kmE3926N3135 <int [1]>   <int [1]> <chr [1]>    <chr [1]>     
    ## 30 2011-2015 1kmE3930N3153 <int [1]>   <int [1]> <chr [1]>    <chr [1]>     
    ## 31 2011-2015 1kmE3931N3096 <int [1]>   <int [1]> <chr [1]>    <chr [1]>     
    ## 32 2011-2015 1kmE3932N3114 <int [1]>   <int [1]> <chr [1]>    <chr [1]>     
    ## 33 2011-2015 1kmE3933N3117 <int [1]>   <int [1]> <chr [1]>    <chr [1]>     
    ## 34 2011-2015 1kmE3935N3150 <int [1]>   <int [1]> <chr [1]>    <chr [1]>     
    ## 35 2011-2015 1kmE3938N3045 <int [1]>   <int [1]> <chr [1]>    <chr [1]>     
    ## 36 2011-2015 1kmE3939N3121 <int [1]>   <int [1]> <chr [1]>    <chr [1]>     
    ## 37 2011-2015 1kmE3943N3075 <int [1]>   <int [1]> <chr [1]>    <chr [1]>     
    ## 38 2011-2015 1kmE3956N3048 <int [1]>   <int [1]> <chr [1]>    <chr [1]>     
    ## 39 2011-2015 1kmE3961N3131 <int [1]>   <int [1]> <chr [1]>    <chr [1]>     
    ## 40 2011-2015 1kmE3968N3084 <int [1]>   <int [1]> <chr [1]>    <chr [1]>     
    ## 41 2011-2015 1kmE3968N3104 <int [1]>   <int [1]> <chr [1]>    <chr [1]>     
    ## 42 2011-2015 1kmE3969N3084 <int [1]>   <int [1]> <chr [1]>    <chr [1]>     
    ## 43 2011-2015 1kmE3974N3148 <int [1]>   <int [1]> <chr [1]>    <chr [1]>     
    ## 44 2011-2015 1kmE3976N3012 <int [1]>   <int [1]> <chr [1]>    <chr [1]>     
    ## 45 2011-2015 1kmE3989N3102 <int [1]>   <int [1]> <chr [1]>    <chr [1]>     
    ## 46 2011-2015 1kmE3992N3110 <int [1]>   <int [1]> <chr [1]>    <chr [1]>     
    ## 47 2011-2015 1kmE3994N3106 <int [1]>   <int [1]> <chr [1]>    <chr [1]>     
    ## 48 2011-2015 1kmE3999N3110 <int [1]>   <int [1]> <chr [1]>    <chr [1]>     
    ## 49 2011-2015 1kmE4001N3057 <int [1]>   <int [1]> <chr [1]>    <chr [1]>     
    ## 50 2011-2015 1kmE4020N2946 <int [1]>   <int [1]> <chr [1]>    <chr [1]>     
    ## # ℹ 255 more rows
…
